PSYC167 - Data subsets and summaries
…
Rows: 210 Columns: 4
── Column specification ────────────────────────────────────────────────────────
Delimiter: ","
chr (3): time, name, event
dbl (1): year

ℹ Use `spec()` to retrieve the full column specification for this data.
ℹ Specify the column types or set `show_col_types = FALSE` to quiet this message.

View its contents:

print(DAT) #view_html(DAT)

# A tibble: 210 × 4
   time  name              year event  
   <chr> <chr>            <dbl> <chr>  
 1 23.29 Jocelyn Crawford  2019 50 FREE
 2 23.31 Ava Sealander     2022 50 FREE
 3 23.49 Kelly Ngo         2016 50 FREE
 4 23.71 Helen Liu         2014 50 FREE
 5 23.76 Michele Kee       2014 50 FREE
 6 23.77 Natalia Orbach-M  2020 50 FREE
 7 23.77 Suzia Starzyk     2020 50 FREE
 8 23.87 Katie Bilotti     2010 50 FREE
 9 23.93 Jenni Rinker      2011 50 FREE
10 24.02 Annika Sharma     2023 50 FREE
# ℹ 200 more rows
…
# A tibble: 5 × 4
   time name              year event  
  <dbl> <chr>            <dbl> <chr>  
1  1409 Jocelyn Crawford  2019 50 FREE
2  1411 Ava Sealander     2022 50 FREE
3  1429 Kelly Ngo         2016 50 FREE
4  1451 Helen Liu         2014 50 FREE
5  1456 Michele Kee       2014 50 FREE

Let’s look at DAT now and see those seconds.

DAT

# A tibble: 210 × 4
   time  name              year event  
   <chr> <chr>            <dbl> <chr>  
 1 23.29 Jocelyn Crawford  2019 50 FREE
 2 23.31 Ava Sealander     2022 50 FREE
 3 23.49 Kelly Ngo         2016 50 FREE
 4 23.71 Helen Liu         2014 50 FREE
 5 23.76 Michele Kee       2014 50 FREE
 6 23.77 Natalia Orbach-M  2020 50 FREE
 7 23.77 Suzia Starzyk     2020 50 FREE
 8 23.87 Katie Bilotti     2010 50 FREE
 9 23.93 Jenni Rinker      2011 50 FREE
10 24.02 Annika Sharma     2023 50 FREE
# ℹ 200 more rows
…
