PSYC167 - Visualizing amounts
…
Reduce the data frame to contain the bests

We will group the data by Event and slice() the data so that the data frame contains rows that represent the fastest Time per event. The which.min() function will return the row in an Event that contains the lowest value for the variable, Time.

We start with 440 rows.

dim(SWIM)

[1] 440   5

SWIM %>% 
  group_by(., Event) %>% 
  slice(., which.min(Time)) 

# A tibble: 22 × 5
# Groups:   Event [22]
     Time Name            Year  Event               Team  
    <dbl> <chr>           <chr> <chr>               <chr> 
 1 2859   Nic Tekieli     2022  100 BACK            Stag  
 2   61.8 Annie Perizzolo 2010  100 BREAST          Athena
 3   61.1 Annie Perizzolo 2010  100 BRST-Relay Spl. Athena
 4 2865   F Applebaum     2022  100 FLY             Stag  
 5 2821   F Applebaum     2022  100 FLY-Relay Spl.  Stag  
 6 2646   Alex Poltash    2015  100 FREE            Stag  
 7 2608   Alex Poltash    2015  100 FREE-Relay Spl. Stag  
 8  554.  Lucas Lang      2022  1000 FREE           Stag  
 9  917.  Lucas Lang      2022  1650 FREE           Stag  
10  105.  Nic Tekieli     2022  200 BACK            Stag  
# ℹ 12 more rows
…
