PSYC167 - Reading, Managing, & Writing Data
…
Using read_csv() from readr:

BABIES2 <- readr::read_csv("https://raw.githubusercontent.com/slicesofdata/dataviz23/main/data/baby-names-2008.csv") 
#> Rows: 2000 Columns: 4
#> ── Column specification ────────────────────────────────────────────────────────
#> Delimiter: ","
#> chr (2): name, sex
#> dbl (2): year, percent
#> 
#> ℹ Use `spec()` to retrieve the full column specification for this data.
#> ℹ Specify the column types or set `show_col_types = FALSE` to quiet this message.

print(BABIES2)
#> # A tibble: 2,000 × 4
#>     year name        percent sex  
#>    <dbl> <chr>         <dbl> <chr>
#>  1  2008 Jacob       0.0104  boy  
#>  2  2008 Michael     0.00944 boy  
#>  3  2008 Ethan       0.00930 boy  
#>  4  2008 Joshua      0.00880 boy  
#>  5  2008 Daniel      0.00870 boy  
#>  6  2008 Alexander   0.00857 boy  
#>  7  2008 Anthony     0.00844 boy  
#>  8  2008 William     0.00844 boy  
#>  9  2008 Christopher 0.00827 boy  
#> 10  2008 Matthew     0.00806 boy  
#> # ℹ 1,990 more rows
…
